[
  {
    "id": 1,
    "name": "Fruits",
    "parentId": 0
  },
  {
    "id": 2,
    "name": "Apple",
    "parentId": 1
  },
  {
    "id": 3,
    "name": "Pear",
    "parentId": 1
  },
  {
    "id": 4,
    "name": "Banana",
    "parentId": 1
  },
  {
    "id": 5,
    "name": "Countries",
    "parentId": 0
  },
  {
    "id": 6,
    "name": "Netherlands",
    "parentId": 5
  },
  {
    "id": 7,
    "name": "Scandinavia",
    "parentId": 5
  },
  {
    "id": 8,
    "name": "Denmark",
    "parentId": 7
  },
  {
    "id": 9,
    "name": "Norway",
    "parentId": 7
  },
  {
    "id": 10,
    "name": "Sweden",
    "parentId": 7
  },
  {
    "id": 11,
    "name": "Germany",
    "parentId": 5
  }
]
